        -:    0:Source:D:/Cours_Ynov/Bachelor_3_Ynov/C++/TP/TP_Part2/Dumbproof.h
        -:    0:Graph:D:\Cours_Ynov\Bachelor_3_Ynov\C++\TP\TP_Part2\cmake-build-debug-coverage\CMakeFiles\TP_Part2.dir\main.cpp.gcno
        -:    0:Data:D:\Cours_Ynov\Bachelor_3_Ynov\C++\TP\TP_Part2\cmake-build-debug-coverage\CMakeFiles\TP_Part2.dir\main.cpp.gcda
        -:    0:Runs:1
        -:    0:Programs:1
        -:    1://
        -:    2:// Created by axous on 16/02/2021.
        -:    3://
        -:    4:
        -:    5:#ifndef TP_PART2_DUMBPROOF_H
        -:    6:#define TP_PART2_DUMBPROOF_H
        -:    7:#include <iostream>
        -:    8:#include <limits>
        -:    9:using namespace std;
        -:   10:
        2:   11:template<typename T> void cinSecure(T &var)
        2:   11-block  0
        -:   12:{
        2:   13:    while (!(cin >> var))
        2:   13-block  0
        -:   14:    {
    #####:   15:        cin.clear();
    $$$$$:   15-block  0
    #####:   16:        cin.ignore(numeric_limits<streamsize>::max(),'\n');
    #####:   17:        cout << "Saisie incorrecte, merci de retaper." << endl;
        -:   18:    }
        1:   19:}
        -:   20:#endif //TP_PART2_DUMBPROOF_H
